[gd_scene load_steps=5 format=2]

[ext_resource path="res://_Objet_3D/_Echiquier/Echiquier.tscn" type="PackedScene" id=1]
[ext_resource path="res://_IconeImage/Echiquier4.png" type="Texture" id=2]

[sub_resource type="PlaneMesh" id=1]

[sub_resource type="SpatialMaterial" id=2]
albedo_texture = ExtResource( 2 )

[node name="Spatial" type="Spatial"]

[node name="ARVROrigin" type="ARVROrigin" parent="."]

[node name="ARVRCamera" type="ARVRCamera" parent="ARVROrigin"]
transform = Transform( 1, 0, 0, 0, -4.37114e-08, 1, 0, -1, -4.37114e-08, 0, 1.5, 0 )

[node name="ARVRController" type="ARVRController" parent="ARVROrigin"]
controller_id = 1

[node name="ARVRAnchor" type="ARVRAnchor" parent="ARVROrigin"]
anchor_id = 1

[node name="Echiquier" parent="." instance=ExtResource( 1 )]

[node name="plane" type="MeshInstance" parent="."]
transform = Transform( 0.5, 0, 0, 0, 0, 0, 0, 0, 0.5, 0, 0, 0 )
mesh = SubResource( 1 )
material/0 = SubResource( 2 )

